Dplyr
…
3 Merge

Merge the two datasets, pmid is unique for each paper

# R dplyr
tic()
final_table = inner_join(table_1, table_2, by = 'pmid')
toc()

## 0.03 sec elapsed

final_table = na.omit(final_table)
final_table

## # A tibble: 108,721 x 12
##    pmid   doi   title source language pubtype pubmodel authors year_pub has_data
##    <chr>  <chr> <chr> <chr>  <chr>    <chr>   <chr>    <chr>   <chr>    <chr>   
##  1 32837~ 10.1~ The ~ MED    eng      "{\"pu~ "\"Prin~ <AUTHO~ 2020     N       
##  2 32196~ 10.1~ Hypo~ MED    eng      "{\"pu~ "\"Prin~ <AUTHO~ 2020     N       
##  3 32778~ 10.1~ The ~ MED    eng      "{\"pu~ "\"Prin~ <AUTHO~ 2020     N       
##  4 32730~ 10.1~ A co~ MED    eng      "{\"pu~ "\"Prin~ <AUTHO~ 2020     N       
##  5 32394~ 10.1~ A gl~ MED    eng      "{\"pu~ "\"Prin~ <AUTHO~ 2020     N       
##  6 32257~ 10.1~ COVI~ MED    eng      "{\"pu~ "\"Elec~ <AUTHO~ 2020     N       
##  7 32720~ 10.1~ The ~ MED    eng      "{\"pu~ "\"Prin~ <AUTHO~ 2020     N       
##  8 32196~ 10.1~ Labo~ MED    eng      "{\"pu~ "\"Prin~ <AUTHO~ 2020     Y       
##  9 32656~ 10.1~ The ~ MED    eng      "{\"pu~ "\"Prin~ <AUTHO~ 2020     N       
## 10 32732~ 10.1~ Cycl~ MED    eng      "{\"pu~ "\"Prin~ <AUTHO~ 2020     N       
## # ... with 108,711 more rows, and 2 more variables: oa <chr>, cited <dbl>
…
tic()
final_table = final_table %>% 
  rowwise() %>%
  mutate(nb_aut = dim(str_match_all(authors, '<AUTHOR>')[[1]])[1]) 
toc()

## 3.34 sec elapsed

final_table = final_table %>% 
  filter(nb_aut > 0)

final_table %>% 
  select(authors, nb_aut)

## # A tibble: 107,103 x 2
## # Rowwise: 
##    authors                                                                nb_aut
##    <chr>                                                                   <int>
##  1 <AUTHOR> Das SK Subir Kumar Das<AFFILIATION>Department of Biochemistr~      1
##  2 <AUTHOR> Lin L Ling Lin<AFFILIATION>Department of Infectious Diseases~      4
##  3 <AUTHOR> Bchetnia M Mbarka Bchetnia<AFFILIATION>Université du Québec ~      4
##  4 <AUTHOR> Liu J Jie Liu<AFFILIATION>Department of Anesthesiology, Unio~      7
##  5 <AUTHOR> Yousefi B Bahman Yousefi<AFFILIATION>Department of Immunolog~      6
##  6 <AUTHOR> Shereen MA Muhammad Adnan Shereen<AFFILIATION>The Department~      5
##  7 <AUTHOR> Taverna G Gianluigi Taverna<AFFILIATION>Urology Unit, Humani~     13
##  8 <AUTHOR> Loeffelholz MJ Michael J Loeffelholz<AFFILIATION>Cepheid, Su~      2
##  9 <AUTHOR> Mandal B Bikash Mandal<AFFILIATION>Division of Plant Patholo~      1
## 10 <AUTHOR> Molyvdas A Adam Molyvdas<AFFILIATION>Departments of Anesthes~      2
## # ... with 107,093 more rows
…
Clean up pub_type, for simplicity just get the first type

# R dplyr
tic()
final_table = final_table %>%
  mutate(pub_type = str_match_all(pubtype, '\\[\\"(.*?)\\"')[[1]][2])
toc()

## 2.66 sec elapsed

final_table %>% 
  select(pubtype,pub_type)

## # A tibble: 107,103 x 2
## # Rowwise: 
##    pubtype                                                         pub_type     
##    <chr>                                                           <chr>        
##  1 "{\"pubType\": [\"review-article\", \"Review\", \"Journal Arti~ review-artic~
##  2 "{\"pubType\": [\"review-article\", \"Journal Article\"]}"      review-artic~
##  3 "{\"pubType\": [\"review-article\", \"Review\", \"Journal Arti~ review-artic~
##  4 "{\"pubType\": [\"review-article\", \"Review\", \"Journal Arti~ review-artic~
##  5 "{\"pubType\": [\"review-article\", \"Review\", \"Journal Arti~ review-artic~
##  6 "{\"pubType\": [\"review-article\", \"Review\", \"Journal Arti~ review-artic~
##  7 "{\"pubType\": [\"review-article\", \"Review\", \"Journal Arti~ review-artic~
##  8 "{\"pubType\": [\"review-article\", \"Review\", \"Journal Arti~ review-artic~
##  9 "{\"pubType\": [\"Editorial\"]}"                                Editorial    
## 10 "{\"pubType\": [\"Editorial\"]}"                                Editorial    
## # ... with 107,093 more rows

8 Highest mean/sd of citation

What is the pub type with the highest mean/sd of citation ? (use cited and the cleaned pub_type)

# R dplyr

final_table %>% 
  group_by(pub_type) %>% 
  summarize(mean = mean(cited),
            sd = sd(cited)) %>%
  arrange(desc(mean))

## # A tibble: 83 x 3
##    pub_type                                                  mean    sd
##    <chr>                                                    <dbl> <dbl>
##  1 Consensus Development Conference                          94.1 392. 
##  2 Research Support, American Recovery and Reinvestment Act  64.4  77.2
##  3 Research Support, U.S. Gov't, P.H.S.                      54.0  97.1
##  4 Research Support, N.I.H., Intramural                      48.5 144. 
##  5 Clinical Trial, Phase II                                  35.3  74.0
##  6 Clinical Conference                                       30.4  84.3
##  7 Comparative Study                                         29.3  57.1
##  8 Controlled Clinical Trial                                 27    49.3
##  9 Research Support, Non-U.S. Gov't                          26.3  67.8
## 10 Clinical Trial                                            24.9  56.6
## # ... with 73 more rows

final_table %>%
  group_by(pub_type) %>% 
  summarize(mean = mean(cited),
            sd = sd(cited)) %>%
  arrange(desc(sd))

## # A tibble: 83 x 3
##    pub_type                                                  mean    sd
##    <chr>                                                    <dbl> <dbl>
##  1 Consensus Development Conference                         94.1  392. 
##  2 Research Support, N.I.H., Intramural                     48.5  144. 
##  3 Research Support, U.S. Gov't, P.H.S.                     54.0   97.1
##  4 editorial                                                 7.28  90.8
##  5 Clinical Conference                                      30.4   84.3
##  6 Research Support, American Recovery and Reinvestment Act 64.4   77.2
##  7 Clinical Trial, Phase II                                 35.3   74.0
##  8 Research Support, Non-U.S. Gov't                         26.3   67.8
##  9 Video-Audio Media                                        12     61.6
## 10 Comparative Study                                        29.3   57.1
## # ... with 73 more rows
…
# R dplyr

countries = tolower(unique(cities$country))
tic()
countries_tibble = final_table %>%
  select(pmid,authors) %>% 
  separate_rows(authors, sep = '<AUTHOR>')
toc()

## 8.37 sec elapsed

countries_tibble %>% 
  select(authors)

## # A tibble: 725,396 x 1
##    authors                                                                      
##    <chr>                                                                        
##  1 ""                                                                           
##  2 " Das SK Subir Kumar Das<AFFILIATION>Department of Biochemistry, College of ~
##  3 ""                                                                           
##  4 " Lin L Ling Lin<AFFILIATION>Department of Infectious Diseases, Peking Union~
##  5 " Lu L Lianfeng Lu<AFFILIATION>Department of Infectious Diseases, Peking Uni~
##  6 " Cao W Wei Cao<AFFILIATION>Department of Infectious Diseases, Peking Union ~
##  7 " Li T Taisheng Li<AFFILIATION>Department of Infectious Diseases, Peking Uni~
##  8 ""                                                                           
##  9 " Bchetnia M Mbarka Bchetnia<AFFILIATION>Université du Québec à Chicoutimi (~
## 10 " Girard C Catherine Girard<AFFILIATION>Université du Québec à Chicoutimi (U~
## # ... with 725,386 more rows

tic()
countries_tibble = countries_tibble %>%
  rowwise() %>% 
  filter(authors !="" & !str_detect(authors, '<AFFILIATION>None'))
toc()

## 16.06 sec elapsed

countries_tibble %>% 
  select(authors)

## # A tibble: 476,357 x 1
## # Rowwise: 
##    authors                                                                      
##    <chr>                                                                        
##  1 " Das SK Subir Kumar Das<AFFILIATION>Department of Biochemistry, College of ~
##  2 " Lin L Ling Lin<AFFILIATION>Department of Infectious Diseases, Peking Union~
##  3 " Lu L Lianfeng Lu<AFFILIATION>Department of Infectious Diseases, Peking Uni~
##  4 " Cao W Wei Cao<AFFILIATION>Department of Infectious Diseases, Peking Union ~
##  5 " Li T Taisheng Li<AFFILIATION>Department of Infectious Diseases, Peking Uni~
##  6 " Bchetnia M Mbarka Bchetnia<AFFILIATION>Université du Québec à Chicoutimi (~
##  7 " Girard C Catherine Girard<AFFILIATION>Université du Québec à Chicoutimi (U~
##  8 " Duchaine C Caroline Duchaine<AFFILIATION>Centre de recherche, Institut uni~
##  9 " Laprise C Catherine Laprise<AFFILIATION>Université du Québec à Chicoutimi ~
## 10 " Liu J Jie Liu<AFFILIATION>Department of Anesthesiology, Union Hospital, To~
## # ... with 476,347 more rows
tic()
countries_tibble = countries_tibble %>%
  group_by(pmid,authors) %>%
  mutate(authors = strsplit(authors,'<AFFILIATION>')[[1]][2]) %>% 
  filter(!duplicated(pmid, authors))
toc()

## 38.13 sec elapsed

countries_tibble %>% 
  select(authors)

## Adding missing grouping variables: `pmid`

## # A tibble: 291,650 x 2
## # Groups:   pmid, authors [291,650]
##    pmid     authors                                                             
##    <chr>    <chr>                                                               
##  1 32837036 "Department of Biochemistry, College of Medicine and JNM Hospital, ~
##  2 32196410 "Department of Infectious Diseases, Peking Union Medical College Ho~
##  3 32196410 "Department of Infectious Diseases, Peking Union Medical College Ho~
##  4 32778421 "Université du Québec à Chicoutimi (UQAC), Département des sciences~
##  5 32778421 "Centre de recherche, Institut universitaire de cardiologie et de p~
##  6 32778421 "Université du Québec à Chicoutimi (UQAC), Département des sciences~
##  7 32730205 "Department of Anesthesiology, Union Hospital, Tongji Medical Colle~
##  8 32730205 "Department of Anesthesiology, Union Hospital, Tongji Medical Colle~
##  9 32394467 "Department of Immunology, Semnan University of Medical Sciences, S~
## 10 32394467 "Department of Bacteriology and Virology, Semnan University of Medi~
## # ... with 291,640 more rows
…
toc()

## 571.11 sec elapsed

tic()
countries_tibble = countries_tibble %>%
  filter(country != '') %>%
  distinct(pmid, country)
toc()

## 4.09 sec elapsed

countries_tibble

## # A tibble: 254,537 x 3
## # Groups:   pmid, authors [254,537]
##    authors                                                       pmid    country
##    <chr>                                                         <chr>   <chr>  
##  1 "department of biochemistry, college of medicine and jnm hos~ 328370~ india  
##  2 "department of infectious diseases, peking union medical col~ 321964~ china  
##  3 "department of infectious diseases, peking union medical col~ 321964~ china  
##  4 "université du québec à chicoutimi (uqac), département des s~ 327784~ canada 
##  5 "centre de recherche, institut universitaire de cardiologie ~ 327784~ canada 
##  6 "université du québec à chicoutimi (uqac), département des s~ 327784~ canada 
##  7 "department of anesthesiology, union hospital, tongji medica~ 327302~ china  
##  8 "department of anesthesiology, union hospital, tongji medica~ 327302~ china  
##  9 "department of immunology, semnan university of medical scie~ 323944~ iran   
## 10 "department of bacteriology and virology, semnan university ~ 323944~ iran   
## # ... with 254,527 more rows
…
