5_Data_Analysis.utf8
…
covid_papers
## # A tibble: 148,916 x 19
##    `_id` pmid  pmcid doi   title source year_pub month_pub creation  
##    <chr> <chr> <chr> <chr> <chr> <chr>  <chr>    <chr>     <date>    
##  1 5f69~ 3283~ PMC7~ 10.1~ The ~ MED    2020     null      2020-08-25
##  2 5f69~ 3219~ PMC7~ 10.1~ Hypo~ MED    2020     null      2020-03-21
##  3 5f69~ 3277~ PMC7~ 10.1~ The ~ MED    2020     null      2020-08-12
##  4 5f69~ 3273~ PMC7~ 10.1~ A co~ MED    2020     null      2020-07-31
##  5 5f69~ null  null  10.2~ Viri~ PPR    2020     null      2020-08-16
##  6 5f69~ null  PMC7~ null  Inte~ PMC    2020     null      2020-09-13
##  7 5f69~ 3239~ PMC7~ 10.1~ A gl~ MED    2020     null      2020-05-13
##  8 5f69~ 3225~ PMC7~ 10.1~ COVI~ MED    2020     null      2020-04-08
##  9 5f69~ 3272~ PMC7~ 10.1~ The ~ MED    2020     null      2020-07-29
## 10 5f69~ 3219~ PMC7~ 10.1~ Labo~ MED    2020     null      2020-03-21
## # ... with 148,906 more rows, and 10 more variables: authors_gender <chr>,
## #   journal <chr>, language <chr>, pubmodel <chr>, pubtype <chr>, mesh <chr>,
## #   keywords <chr>, cited <dbl>, has_data <chr>, oa <chr>
…
slice(covid_papers,2)
## # A tibble: 1 x 19
##   `_id` pmid  pmcid doi   title source year_pub month_pub creation  
##   <chr> <chr> <chr> <chr> <chr> <chr>  <chr>    <chr>     <date>    
## 1 5f69~ 3219~ PMC7~ 10.1~ Hypo~ MED    2020     null      2020-03-21
## # ... with 10 more variables: authors_gender <chr>, journal <chr>,
## #   language <chr>, pubmodel <chr>, pubtype <chr>, mesh <chr>, keywords <chr>,
## #   cited <dbl>, has_data <chr>, oa <chr>
slice_sample(covid_papers,prop = 0.001)
## # A tibble: 148 x 19
##    `_id` pmid  pmcid doi   title source year_pub month_pub creation  
##    <chr> <chr> <chr> <chr> <chr> <chr>  <chr>    <chr>     <date>    
##  1 5f69~ 3254~ PMC7~ 10.1~ Huma~ MED    2020     null      2020-06-18
##  2 5f69~ null  PMC7~ null  Bact~ PMC    2008     null      2020-04-16
##  3 5f69~ 3263~ PMC7~ 10.1~ Intu~ MED    2020     null      2020-07-09
##  4 5f69~ 3283~ PMC7~ 10.1~ Impa~ MED    2020     null      2020-08-25
##  5 5f69~ 3285~ null  10.1~ COVI~ MED    2020     null      2020-08-29
##  6 5f69~ 3280~ null  10.1~ Prec~ MED    2020     null      2020-08-18
##  7 5f69~ 1703~ PMC7~ 10.1~ Non ~ MED    2006     null      2006-10-14
##  8 5f69~ 3274~ PMC7~ 10.1~ Earl~ MED    2020     null      2020-08-04
##  9 5f69~ 3225~ PMC7~ 10.1~ The ~ MED    2020     null      2020-04-08
## 10 5f69~ 3250~ PMC7~ 10.1~ Fore~ MED    2020     null      2020-06-06
## # ... with 138 more rows, and 10 more variables: authors_gender <chr>,
## #   journal <chr>, language <chr>, pubmodel <chr>, pubtype <chr>, mesh <chr>,
## #   keywords <chr>, cited <dbl>, has_data <chr>, oa <chr>
…
 Using Pipes 

# R

covid_papers %>% slice(2)
## # A tibble: 1 x 19
##   `_id` pmid  pmcid doi   title source year_pub month_pub creation  
##   <chr> <chr> <chr> <chr> <chr> <chr>  <chr>    <chr>     <date>    
## 1 5f69~ 3219~ PMC7~ 10.1~ Hypo~ MED    2020     null      2020-03-21
## # ... with 10 more variables: authors_gender <chr>, journal <chr>,
## #   language <chr>, pubmodel <chr>, pubtype <chr>, mesh <chr>, keywords <chr>,
## #   cited <dbl>, has_data <chr>, oa <chr>
covid_papers %>% slice_sample(prop = 0.001)
## # A tibble: 148 x 19
##    `_id` pmid  pmcid doi   title source year_pub month_pub creation  
##    <chr> <chr> <chr> <chr> <chr> <chr>  <chr>    <chr>     <date>    
##  1 5f69~ 3143~ PMC6~ 10.1~ "STE~ MED    2019     null      2019-08-22
##  2 5f69~ null  PMC7~ null  "Lun~ PMC    2018     null      2020-04-16
##  3 5f69~ 3271~ PMC7~ 10.1~ "Fro~ MED    2020     null      2020-07-29
##  4 5f69~ 3277~ PMC7~ 10.7~ "Vir~ MED    2020     null      2020-08-11
##  5 5f69~ 3220~ PMC7~ 10.1~ "Sho~ MED    2020     null      2020-03-24
##  6 5f69~ 3246~ PMC7~ 10.1~ "Obe~ MED    2020     null      2020-05-29
##  7 5f69~ 1680~ PMC7~ 10.1~ "The~ MED    2006     null      2006-06-30
##  8 5f69~ 2898~ PMC5~ null  "Alc~ MED    2017     null      2017-10-10
##  9 5f69~ null  null  10.2~ "Inh~ PPR    2020     null      2020-04-02
## 10 5f69~ 3243~ PMC7~ 10.1~ "Pos~ MED    2020     null      2020-05-22
## # ... with 138 more rows, and 10 more variables: authors_gender <chr>,
## #   journal <chr>, language <chr>, pubmodel <chr>, pubtype <chr>, mesh <chr>,
## #   keywords <chr>, cited <dbl>, has_data <chr>, oa <chr>
…
using regular expression

# R using Tibbles
colnames(cp_tibble)[1:3] <- paste0('V',c(1:3))

select(cp_tibble, num_range("V", 1:2))
## # A tibble: 148,913 x 2
##    V1                       V2      
##    <chr>                    <chr>   
##  1 5f69d6fa65a250f0edc4ee5c 32837036
##  2 5f69d6fa65a250f0edc4ee5d 32196410
##  3 5f69d6fa65a250f0edc4ee5e 32778421
##  4 5f69d6fa65a250f0edc4ee5f 32730205
##  5 5f69d6fa65a250f0edc4ee60 null    
##  6 5f69d6fa65a250f0edc4ee61 null    
##  7 5f69d6fa65a250f0edc4ee62 32394467
##  8 5f69d6fa65a250f0edc4ee63 32257431
##  9 5f69d6fa65a250f0edc4ee64 32720031
## 10 5f69d6fa65a250f0edc4ee65 32196430
## # ... with 148,903 more rows
select(cp_tibble, title, everything()) # reorder columns
## # A tibble: 148,913 x 19
##    title V1    V2    V3    doi   source year_pub month_pub creation  
##    <chr> <chr> <chr> <chr> <chr> <chr>  <chr>    <chr>     <date>    
##  1 The ~ 5f69~ 3283~ PMC7~ 10.1~ MED    2020     null      2020-08-25
##  2 Hypo~ 5f69~ 3219~ PMC7~ 10.1~ MED    2020     null      2020-03-21
##  3 The ~ 5f69~ 3277~ PMC7~ 10.1~ MED    2020     null      2020-08-12
##  4 A co~ 5f69~ 3273~ PMC7~ 10.1~ MED    2020     null      2020-07-31
##  5 Viri~ 5f69~ null  null  10.2~ PPR    2020     null      2020-08-16
##  6 Inte~ 5f69~ null  PMC7~ null  PMC    2020     null      2020-09-13
##  7 A gl~ 5f69~ 3239~ PMC7~ 10.1~ MED    2020     null      2020-05-13
##  8 COVI~ 5f69~ 3225~ PMC7~ 10.1~ MED    2020     null      2020-04-08
##  9 The ~ 5f69~ 3272~ PMC7~ 10.1~ MED    2020     null      2020-07-29
## 10 Labo~ 5f69~ 3219~ PMC7~ 10.1~ MED    2020     null      2020-03-21
## # ... with 148,903 more rows, and 10 more variables: authors_gender <chr>,
## #   journal <chr>, language <chr>, pubmodel <chr>, pubtype <chr>, mesh <chr>,
## #   keywords <chr>, cited <dbl>, has_data <chr>, oa <chr>
select(cp_tibble, contains("V"))
## # A tibble: 148,913 x 3
##    V1                       V2       V3        
##    <chr>                    <chr>    <chr>     
##  1 5f69d6fa65a250f0edc4ee5c 32837036 PMC7424135
##  2 5f69d6fa65a250f0edc4ee5d 32196410 PMC7170333
##  3 5f69d6fa65a250f0edc4ee5e 32778421 PMC7402212
##  4 5f69d6fa65a250f0edc4ee5f 32730205 PMC7382925
##  5 5f69d6fa65a250f0edc4ee60 null     null      
##  6 5f69d6fa65a250f0edc4ee61 null     PMC7480804
##  7 5f69d6fa65a250f0edc4ee62 32394467 PMC7273044
##  8 5f69d6fa65a250f0edc4ee63 32257431 PMC7113610
##  9 5f69d6fa65a250f0edc4ee64 32720031 PMC7384276
## 10 5f69d6fa65a250f0edc4ee65 32196430 PMC7172701
## # ... with 148,903 more rows
select(cp_tibble, ends_with("3"))
## # A tibble: 148,913 x 1
##    V3        
##    <chr>     
##  1 PMC7424135
##  2 PMC7170333
##  3 PMC7402212
##  4 PMC7382925
##  5 null      
##  6 PMC7480804
##  7 PMC7273044
##  8 PMC7113610
##  9 PMC7384276
## 10 PMC7172701
## # ... with 148,903 more rows
select(cp_tibble, matches(".2"))
## # A tibble: 148,913 x 1
##    V2      
##    <chr>   
##  1 32837036
##  2 32196410
##  3 32778421
##  4 32730205
##  5 null    
##  6 null    
##  7 32394467
##  8 32257431
##  9 32720031
## 10 32196430
## # ... with 148,903 more rows
select(cp_tibble, one_of(c("V1", "X")))
## Warning: Unknown columns: `X`
## # A tibble: 148,913 x 1
##    V1                      
##    <chr>                   
##  1 5f69d6fa65a250f0edc4ee5c
##  2 5f69d6fa65a250f0edc4ee5d
##  3 5f69d6fa65a250f0edc4ee5e
##  4 5f69d6fa65a250f0edc4ee5f
##  5 5f69d6fa65a250f0edc4ee60
##  6 5f69d6fa65a250f0edc4ee61
##  7 5f69d6fa65a250f0edc4ee62
##  8 5f69d6fa65a250f0edc4ee63
##  9 5f69d6fa65a250f0edc4ee64
## 10 5f69d6fa65a250f0edc4ee65
## # ... with 148,903 more rows
select(cp_tibble, -starts_with("doi"))
## # A tibble: 148,913 x 18
##    V1    V2    V3    title source year_pub month_pub creation   authors_gender
##    <chr> <chr> <chr> <chr> <chr>  <chr>    <chr>     <date>     <chr>         
##  1 5f69~ 3283~ PMC7~ The ~ MED    2020     null      2020-08-25 <AUTHOR><FULL~
##  2 5f69~ 3219~ PMC7~ Hypo~ MED    2020     null      2020-03-21 <AUTHOR><FULL~
##  3 5f69~ 3277~ PMC7~ The ~ MED    2020     null      2020-08-12 <AUTHOR><FULL~
##  4 5f69~ 3273~ PMC7~ A co~ MED    2020     null      2020-07-31 <AUTHOR><FULL~
##  5 5f69~ null  null  Viri~ PPR    2020     null      2020-08-16 <AUTHOR><FULL~
##  6 5f69~ null  PMC7~ Inte~ PMC    2020     null      2020-09-13 <AUTHOR><FULL~
##  7 5f69~ 3239~ PMC7~ A gl~ MED    2020     null      2020-05-13 <AUTHOR><FULL~
##  8 5f69~ 3225~ PMC7~ COVI~ MED    2020     null      2020-04-08 <AUTHOR><FULL~
##  9 5f69~ 3272~ PMC7~ The ~ MED    2020     null      2020-07-29 <AUTHOR><FULL~
## 10 5f69~ 3219~ PMC7~ Labo~ MED    2020     null      2020-03-21 <AUTHOR><FULL~
## # ... with 148,903 more rows, and 9 more variables: journal <chr>,
## #   language <chr>, pubmodel <chr>, pubtype <chr>, mesh <chr>, keywords <chr>,
## #   cited <dbl>, has_data <chr>, oa <chr>
…
cp_tibble[-(3:7),]
## # A tibble: 148,908 x 19
##    V1    V2    V3    doi   title source year_pub month_pub creation  
##    <chr> <chr> <chr> <chr> <chr> <chr>  <chr>    <chr>     <date>    
##  1 5f69~ 3283~ PMC7~ 10.1~ The ~ MED    2020     null      2020-08-25
##  2 5f69~ 3219~ PMC7~ 10.1~ Hypo~ MED    2020     null      2020-03-21
##  3 5f69~ 3225~ PMC7~ 10.1~ COVI~ MED    2020     null      2020-04-08
##  4 5f69~ 3272~ PMC7~ 10.1~ The ~ MED    2020     null      2020-07-29
##  5 5f69~ 3219~ PMC7~ 10.1~ Labo~ MED    2020     null      2020-03-21
##  6 5f69~ 3265~ PMC7~ 10.1~ The ~ MED    2020     null      2020-07-14
##  7 5f69~ 3273~ PMC7~ 10.1~ Cycl~ MED    2020     null      2020-08-01
##  8 5f69~ null  PMC7~ null  Live~ PMC    2020     null      2020-09-10
##  9 5f69~ 3203~ PMC7~ 10.1~ Emer~ MED    2020     null      2020-02-11
## 10 5f69~ 3260~ PMC7~ 10.2~ Asse~ MED    2020     null      2020-07-02
## # ... with 148,898 more rows, and 10 more variables: authors_gender <chr>,
## #   journal <chr>, language <chr>, pubmodel <chr>, pubtype <chr>, mesh <chr>,
## #   keywords <chr>, cited <dbl>, has_data <chr>, oa <chr>
slice(cp_tibble, -(3:7)) # same
## # A tibble: 148,908 x 19
##    V1    V2    V3    doi   title source year_pub month_pub creation  
##    <chr> <chr> <chr> <chr> <chr> <chr>  <chr>    <chr>     <date>    
##  1 5f69~ 3283~ PMC7~ 10.1~ The ~ MED    2020     null      2020-08-25
##  2 5f69~ 3219~ PMC7~ 10.1~ Hypo~ MED    2020     null      2020-03-21
##  3 5f69~ 3225~ PMC7~ 10.1~ COVI~ MED    2020     null      2020-04-08
##  4 5f69~ 3272~ PMC7~ 10.1~ The ~ MED    2020     null      2020-07-29
##  5 5f69~ 3219~ PMC7~ 10.1~ Labo~ MED    2020     null      2020-03-21
##  6 5f69~ 3265~ PMC7~ 10.1~ The ~ MED    2020     null      2020-07-14
##  7 5f69~ 3273~ PMC7~ 10.1~ Cycl~ MED    2020     null      2020-08-01
##  8 5f69~ null  PMC7~ null  Live~ PMC    2020     null      2020-09-10
##  9 5f69~ 3203~ PMC7~ 10.1~ Emer~ MED    2020     null      2020-02-11
## 10 5f69~ 3260~ PMC7~ 10.2~ Asse~ MED    2020     null      2020-07-02
## # ... with 148,898 more rows, and 10 more variables: authors_gender <chr>,
## #   journal <chr>, language <chr>, pubmodel <chr>, pubtype <chr>, mesh <chr>,
## #   keywords <chr>, cited <dbl>, has_data <chr>, oa <chr>
…
On the other hand, data.table also provides convenience functions to filter rows based on a regular expression or to find values lying in one (or several) interval(s).

Below, we will see that data.table has two optimized mechanisms to filter rows efficiently (keys and indices).

1.4.1.3 Sorting

# R using Tibbles
cp_tibble %>% arrange(creation) %>% select(creation)
## # A tibble: 148,913 x 1
##    creation  
##    <date>    
##  1 1929-01-01
##  2 1933-02-01
##  3 1945-01-01
##  4 1946-12-01
##  5 1951-09-08
##  6 1951-12-01
##  7 1951-12-01
##  8 1951-12-01
##  9 1951-12-01
## 10 1951-12-01
## # ... with 148,903 more rows
cp_tibble %>% arrange(desc(creation)) %>% select(creation)
## # A tibble: 148,913 x 1
##    creation  
##    <date>    
##  1 2020-09-16
##  2 2020-09-16
##  3 2020-09-16
##  4 2020-09-16
##  5 2020-09-16
##  6 2020-09-16
##  7 2020-09-16
##  8 2020-09-16
##  9 2020-09-16
## 10 2020-09-16
## # ... with 148,903 more rows

arrange(cp_tibble, year_pub, desc(creation)) %>% select(year_pub,creation)
## # A tibble: 148,913 x 2
##    year_pub creation  
##    <chr>    <date>    
##  1 1820     2018-12-05
##  2 1821     2018-06-23
##  3 1830     2018-06-20
##  4 1832     2018-06-20
##  5 1833     2018-06-20
##  6 1835     2018-11-09
##  7 1836     2018-06-20
##  8 1836     2018-06-20
##  9 1836     2018-06-20
## 10 1842     2018-06-20
## # ... with 148,903 more rows
…
dplyr helper functions for summarise() (or summarize()) include first(), last(), n(), nth(), and n_distinct(). The data.table package also include first(), last(), and uniqueN().

1.4.1.5 Add/update/delete columns

In the following commands, with data.table, columns are modified by reference using the column assignment symbol := (no copy performed) and the results are returned invisibly. With dplyr, we have to assign the results.

# R using Tibbles
cp_tibble %>% select(oa)
## # A tibble: 148,913 x 1
##    oa   
##    <chr>
##  1 Y    
##  2 Y    
##  3 Y    
##  4 Y    
##  5 N    
##  6 Y    
##  7 Y    
##  8 Y    
##  9 Y    
## 10 Y    
## # ... with 148,903 more rows
cp_tibble <- cp_tibble %>% mutate(oa = ifelse(oa == 'Y',1,0), log_cited = log(cited + 1))
cp_tibble %>% select(oa,log_cited)
## # A tibble: 148,913 x 2
##       oa log_cited
##    <dbl>     <dbl>
##  1     1     0    
##  2     1     4.13 
##  3     1     0    
##  4     1     0    
##  5     0     0    
##  6     1     0    
##  7     1     0.693
##  8     1     4.38 
##  9     1     0    
## 10     1     3.99 
## # ... with 148,903 more rows

# Create one column and remove the others
transmute(cp_tibble, title_lower = tolower(title))
## # A tibble: 148,913 x 1
##    title_lower                                                                  
##    <chr>                                                                        
##  1 the pathophysiology, diagnosis and treatment of corona virus disease 2019 (c~
##  2 hypothesis for potential pathogenesis of sars-cov-2 infection-a review of im~
##  3 the outbreak of the novel severe acute respiratory syndrome coronavirus 2 (s~
##  4 a comparative overview of covid-19, mers and sars: review article.           
##  5 virion structure and mechanism of propagation of coronaviruses including sar~
##  6 interaction of sars-cov-2 and other coronavirus with ace (angiotensin-conver~
##  7 a global treatments for coronaviruses including covid-19.                    
##  8 covid-19 infection: origin, transmission, and characteristics of human coron~
##  9 the kidney, covid-19, and the chemokine network: an intriguing trio.         
## 10 laboratory diagnosis of emerging human coronavirus infections - the state of~
## # ... with 148,903 more rows
…
cols <- c('V3','doi')
cp_datatable[, (cols) := NULL] # ! not cp_datatable[, cols := NULL]

1.4.1.6 Grouping

by The dplyr::group_by() function and the corresponding by and keyby statements in data.table allow to run manipulate each group of observations and combine the results. The sole difference between by and keyby is that keyby orders the results and creates a key that will allow faster subsetting (cf. the indexing and keys section). Below, we arbitrary use one or the other. group_by() takes an existing tibble and converts it into a grouped tibble where operations will always be performed “by group”. Using ungroup() removes grouping. With data.table, by is always used on the fly. Note that it is possible to reorder the arguments in data.table: cp_datatable[i, j, by] <=> cp_datatable[i, by, j]. This is done below to better highlight the similarity with dplyr.

# R using Tibbles
cp_tibble <-  as_tibble(covid_papers) %>% filter(pmid!='null')

cp_tibble %>%
  group_by(year_pub) %>%
  summarise(nb_language = length(unique(language)))
## `summarise()` ungrouping output (override with `.groups` argument)
## # A tibble: 113 x 2
##    year_pub nb_language
##    <chr>          <int>
##  1 1830               1
##  2 1832               1
##  3 1833               1
##  4 1836               1
##  5 1842               1
##  6 1845               1
##  7 1857               1
##  8 1864               1
##  9 1874               1
## 10 1876               1
## # ... with 103 more rows

# By several groups
cp_tibble %>%
  group_by(year_pub, source) %>%
  summarise(mean_cited = mean(cited))
## `summarise()` regrouping output by 'year_pub' (override with `.groups` argument)
## # A tibble: 113 x 3
## # Groups:   year_pub [113]
##    year_pub source mean_cited
##    <chr>    <chr>       <dbl>
##  1 1830     MED             0
##  2 1832     MED             0
##  3 1833     MED             0
##  4 1836     MED             0
##  5 1842     MED             0
##  6 1845     MED             0
##  7 1857     MED             0
##  8 1864     MED             0
##  9 1874     MED             0
## 10 1876     MED             0
## # ... with 103 more rows

# Assigning column name in by
cp_tibble %>%
  group_by(PY = as.numeric(year_pub)) %>%
  summarise(sum_cited = sum(cited))
## `summarise()` ungrouping output (override with `.groups` argument)
## # A tibble: 113 x 2
##       PY sum_cited
##    <dbl>     <dbl>
##  1  1830         0
##  2  1832         0
##  3  1833         0
##  4  1836         0
##  5  1842         0
##  6  1845         0
##  7  1857         0
##  8  1864         0
##  9  1874         0
## 10  1876         0
## # ... with 103 more rows
…
cp_tibble %>%
  group_by(source) %>%
  group_size() # returns a vector
## [1] 113917

# Add a column with number of observations for each group
add_count(cp_tibble, year_pub) %>% select(year_pub,n)
## # A tibble: 113,917 x 2
##    year_pub     n
##    <chr>    <int>
##  1 2020     63760
##  2 2020     63760
##  3 2020     63760
##  4 2020     63760
##  5 2020     63760
##  6 2020     63760
##  7 2020     63760
##  8 2020     63760
##  9 2020     63760
## 10 2020     63760
## # ... with 113,907 more rows
cp_tibble %>%
  group_by(year_pub) %>%
  add_tally()
## # A tibble: 113,917 x 20
## # Groups:   year_pub [113]
##    `_id` pmid  pmcid doi   title source year_pub month_pub creation  
##    <chr> <chr> <chr> <chr> <chr> <chr>  <chr>    <chr>     <date>    
##  1 5f69~ 3283~ PMC7~ 10.1~ The ~ MED    2020     null      2020-08-25
##  2 5f69~ 3219~ PMC7~ 10.1~ Hypo~ MED    2020     null      2020-03-21
##  3 5f69~ 3277~ PMC7~ 10.1~ The ~ MED    2020     null      2020-08-12
##  4 5f69~ 3273~ PMC7~ 10.1~ A co~ MED    2020     null      2020-07-31
##  5 5f69~ 3239~ PMC7~ 10.1~ A gl~ MED    2020     null      2020-05-13
##  6 5f69~ 3225~ PMC7~ 10.1~ COVI~ MED    2020     null      2020-04-08
##  7 5f69~ 3272~ PMC7~ 10.1~ The ~ MED    2020     null      2020-07-29
##  8 5f69~ 3219~ PMC7~ 10.1~ Labo~ MED    2020     null      2020-03-21
##  9 5f69~ 3265~ PMC7~ 10.1~ The ~ MED    2020     null      2020-07-14
## 10 5f69~ 3273~ PMC7~ 10.1~ Cycl~ MED    2020     null      2020-08-01
## # ... with 113,907 more rows, and 11 more variables: authors_gender <chr>,
## #   journal <chr>, language <chr>, pubmodel <chr>, pubtype <chr>, mesh <chr>,
## #   keywords <chr>, cited <dbl>, has_data <chr>, oa <chr>, n <int>
…
